﻿===============================================================================
~/Views/Shared/_Layout.cshtml
===============================================================================

<!DOCTYPE html>
<html>
<head>
	<meta charset="utf-8" />
	<meta http-equiv="X-UA-Compatible" content="IE=edge,chrome=1" />
	<meta name="viewport" content="width=device-width, initial-scale=1.0">
	<title></title>
	<script src="~/Content/moment2/moment.min.js"></script>
	<script src="~/Content/moment2/locale/ru.min.js"></script>
</head>
<body>
	@RenderBody()
</body>
</html>